<?xml version="1.0" encoding="utf-8"?>
<!-- Generator: Adobe Illustrator 17.0.0, SVG Export Plug-In . SVG Version: 6.00 Build 0)  -->
<!DOCTYPE svg PUBLIC "-//W3C//DTD SVG 1.1//EN" "http://www.w3.org/Graphics/SVG/1.1/DTD/svg11.dtd">
<svg version="1.1" id="Camada_1" xmlns="http://www.w3.org/2000/svg" xmlns:xlink="http://www.w3.org/1999/xlink" x="0px" y="0px"
	 width="300.417px" height="100.25px" viewBox="0 0 300.417 100.25" enable-background="new 0 0 300.417 100.25"
	 xml:space="preserve">
<g>
	<path fill="#121212" d="M146.353,42.383h-17.367v2.469v11.112v2.469v2.469v11.112v2.469h17.367c4.266,0,7.738-3.471,7.738-7.738
		v-3.045c0-2.036-0.796-3.885-2.086-5.268c1.29-1.383,2.086-3.232,2.086-5.268v-3.045C154.09,45.854,150.619,42.383,146.353,42.383z
		 M149.151,66.747c0,1.543-1.255,2.799-2.799,2.799h-12.428v-8.642h12.428c1.543,0,2.799,1.255,2.799,2.799V66.747z M149.151,53.166
		c0,1.543-1.255,2.799-2.799,2.799h-12.428v-8.642h12.428c1.543,0,2.799,1.255,2.799,2.799V53.166z"/>
	<path fill="#121212" d="M282.106,47.322h17.367v-4.939h-17.367c-4.267,0-7.738,3.471-7.738,7.738v3.045
		c0,4.267,3.471,7.738,7.738,7.738h9.63c1.543,0,2.799,1.255,2.799,2.799v3.045c0,1.543-1.255,2.799-2.799,2.799h-17.367v4.939
		h17.367c4.266,0,7.738-3.471,7.738-7.738v-3.045c0-4.267-3.471-7.738-7.738-7.738h-9.63c-1.543,0-2.799-1.255-2.799-2.799v-3.045
		C279.307,48.578,280.563,47.322,282.106,47.322z"/>
	<polygon fill="#121212" points="235.99,42.383 225.907,42.383 225.907,47.322 235.99,47.322 235.99,74.484 240.929,74.484 
		240.929,47.322 251.012,47.322 251.012,42.383 240.929,42.383 	"/>
	<path fill="#121212" d="M188.194,42.383l-12.003,32.101h5.258l2.557-6.791h11.927l2.532,6.791h5.26l-11.921-32.101H188.194z
		 M185.865,62.755l4.134-10.979l4.093,10.979H185.865z"/>
</g>
<g>
	<path fill="#FFFFFF" d="M22.473,30.49l-1.237,0.247c-0.996,0.199-1.755,0.485-2.321,0.781c0.836-0.036,1.707-0.069,2.587-0.102
		C21.818,31.101,22.145,30.795,22.473,30.49z"/>
	<path fill="#ECC42E" d="M14.317,58.319c0,7.286,2.311,14.039,6.228,19.58c2.722-1.003,7.057-3.192,7.602-7.202
		c0.566-4.163-1.577-11.126-12.469-21.882C14.798,51.834,14.317,55.021,14.317,58.319z"/>
	<path fill="#ECC42E" d="M27.844,31.189c10.76-0.387,23.655-0.996,35.421-3.418c-4.512-2.215-9.581-3.464-14.937-3.464
		C40.643,24.308,33.546,26.874,27.844,31.189z"/>
	<g>
		<path fill="none" d="M14.317,58.319c0,7.286,2.311,14.039,6.228,19.58c2.722-1.003,7.057-3.192,7.602-7.202
			c0.566-4.163-1.577-11.126-12.469-21.882C14.798,51.834,14.317,55.021,14.317,58.319z"/>
		<path fill="none" d="M22.473,30.49l-1.237,0.247c-0.996,0.199-1.755,0.485-2.321,0.781c0.836-0.036,1.707-0.069,2.587-0.102
			C21.818,31.101,22.145,30.795,22.473,30.49z"/>
		<path fill="none" d="M27.844,31.189c10.76-0.387,23.655-0.996,35.421-3.418c-4.512-2.215-9.581-3.464-14.937-3.464
			C40.643,24.308,33.546,26.873,27.844,31.189z"/>
		<path fill="#FFFFFF" d="M104.298,57.322l-4.231-4.547c-6.712-7.211-4.87-11.136-1.816-17.639c1.953-4.157,4.166-8.87,4.187-14.795
			c0.001-0.159,0-0.323-0.003-0.484c-0.059-3.389-0.825-6.709-2.342-10.148l-3.081-6.992l-0.77-1.748l-0.998,1.629l-3.99,6.517
			c-3.861,6.306-11.001,10.892-21.82,14.012c-6.375-3.841-13.662-5.868-21.105-5.868c-8.358,0-16.385,2.503-23.245,7.243
			l-3.224-0.669c-1.187-0.246-2.419-0.371-3.661-0.371c-3.738,0-7.549,1.113-10.732,3.135c-2.935,1.865-5.126,4.362-6.009,6.852
			c-1.187,3.344-0.29,6.644,2.399,8.829c1.809,1.469,3.539,2.935,5.149,4.363c-1.121,3.775-1.689,7.685-1.689,11.631
			c0,22.614,18.398,41.012,41.012,41.012c8.518,0,16.682-2.596,23.628-7.511c2.954-0.305,5.325-0.37,6.81-0.37
			c1.574,0,2.563,0.068,2.671,0.075l5.55,0.435l1.388,0.109l-0.34-1.35l-1.361-5.403c-0.048-0.199-1.218-5.164-0.314-10.664
			c0.126-0.762,0.297-1.546,0.495-2.269c0.234-0.639,0.453-1.294,0.638-1.899c1.796-4.579,5.328-7.779,10.501-9.511l5.89-1.972
			l1.472-0.493L104.298,57.322z M97.042,58.128c-6.108,2.045-10.247,5.853-12.371,11.336c-0.203,0.66-0.421,1.314-0.659,1.959
			c-0.248,0.877-0.454,1.789-0.611,2.741c-1.028,6.244,0.35,11.827,0.364,11.883l0.682,2.704l-2.78-0.219
			c-0.009-0.001-1.085-0.083-2.901-0.083c-1.781,0-4.565,0.09-7.922,0.473c-6.307,4.652-14.094,7.409-22.515,7.409
			c-20.96,0-38.012-17.052-38.012-38.012c0-4.401,0.76-8.626,2.142-12.56c-1.995-1.822-4.222-3.741-6.712-5.763
			c-1.659-1.348-2.206-3.403-1.462-5.497c1.369-3.859,7.288-7.99,13.914-7.99c1.036,0,2.062,0.104,3.05,0.309l4.512,0.936
			c6.316-4.676,14.123-7.447,22.567-7.447c7.604,0,14.688,2.253,20.636,6.114c10.723-2.905,19.941-7.678,24.847-15.691l1.996-3.259
			l1.541,3.496c1.453,3.298,2.04,6.267,2.087,8.994c0.003,0.138,0.003,0.275,0.003,0.412c-0.017,5.229-2.033,9.557-3.901,13.535
			c-3.218,6.852-5.76,12.264,2.335,20.959l2.117,2.274L97.042,58.128z"/>
		<path fill="#121212" d="M97.87,54.868c-8.095-8.695-5.553-14.107-2.335-20.959c1.868-3.978,3.885-8.306,3.901-13.535
			c0-0.137,0-0.274-0.003-0.412c-0.047-2.728-0.633-5.696-2.087-8.994l-1.541-3.496l-1.996,3.259
			c-4.906,8.013-14.124,12.786-24.847,15.691c-5.948-3.861-13.031-6.114-20.636-6.114c-8.444,0-16.251,2.771-22.567,7.447
			l-4.512-0.936c-0.988-0.205-2.015-0.309-3.05-0.309c-6.626,0-12.545,4.131-13.914,7.99c-0.744,2.095-0.197,4.149,1.462,5.497
			c2.49,2.022,4.717,3.941,6.712,5.763c-1.382,3.935-2.142,8.159-2.142,12.56c0,20.96,17.052,38.012,38.012,38.012
			c8.421,0,16.208-2.757,22.515-7.409c3.357-0.383,6.141-0.473,7.922-0.473c1.817,0,2.892,0.083,2.901,0.083l2.78,0.219
			l-0.682-2.704c-0.014-0.056-1.392-5.639-0.364-11.883c0.157-0.952,0.363-1.864,0.611-2.741c0.237-0.645,0.456-1.298,0.659-1.959
			c2.125-5.483,6.263-9.291,12.371-11.336l2.946-0.986L97.87,54.868z M28.147,70.698c-0.546,4.01-4.88,6.198-7.602,7.202
			c-3.917-5.541-6.228-12.294-6.228-19.58c0-3.299,0.481-6.485,1.361-9.504C26.57,59.572,28.713,66.535,28.147,70.698z
			 M22.473,30.49c-0.328,0.305-0.655,0.61-0.972,0.927c-0.88,0.033-1.751,0.066-2.587,0.102c0.566-0.296,1.325-0.582,2.321-0.781
			L22.473,30.49z M27.844,31.189c5.702-4.316,12.798-6.882,20.484-6.882c5.356,0,10.425,1.249,14.937,3.464
			C51.5,30.193,38.605,30.802,27.844,31.189z"/>
	</g>
</g>
<g>
	<g>
		<g>
			<linearGradient id="SVGID_1_" gradientUnits="userSpaceOnUse" x1="59.0663" y1="39.2711" x2="55.5663" y2="89.2711">
				<stop  offset="0" style="stop-color:#FFFFFF"/>
				<stop  offset="1" style="stop-color:#FFFFFF;stop-opacity:0"/>
			</linearGradient>
			<path fill="url(#SVGID_1_)" d="M60.347,47.666c-8.74-2.706-30.67-6.834-30.67-6.834c36.004,2.667,56.694,14.913,57.477,15.458
				C87.154,56.29,70.023,50.662,60.347,47.666z"/>
		</g>
	</g>
	<g>
		<g>
			<linearGradient id="SVGID_2_" gradientUnits="userSpaceOnUse" x1="55.2751" y1="39.0057" x2="51.7751" y2="89.0057">
				<stop  offset="0" style="stop-color:#FFFFFF"/>
				<stop  offset="1" style="stop-color:#FFFFFF;stop-opacity:0"/>
			</linearGradient>
			<path fill="url(#SVGID_2_)" d="M59.68,62.001c0,0-18.002-16.253-31.003-18.502C43.642,49.995,48.005,53.79,57.98,63.168
				c10.414,9.79,20.175,21.648,20.336,22.154C78.316,85.322,69.411,72.723,59.68,62.001z"/>
		</g>
	</g>
	<g>
		<g>
			<linearGradient id="SVGID_3_" gradientUnits="userSpaceOnUse" x1="50.9967" y1="38.7062" x2="47.4967" y2="88.7062">
				<stop  offset="0" style="stop-color:#FFFFFF"/>
				<stop  offset="1" style="stop-color:#FFFFFF;stop-opacity:0"/>
			</linearGradient>
			<path fill="url(#SVGID_3_)" d="M36.178,83.836c0,0,0-35.275-26.503-47.338c-0.239-0.396,3.087-5.586,6.617-5.45
				c-3.783,3.672-0.016,4.489,0.773,4.672c4.135,0.961,17.736,1.316,27.308,0.384c22.341-2.174,44.979-9.401,49.81-21.608
				C88.018,28.721,68.81,34.763,51.159,36.891c-14.477,1.746-28.124,0.64-30.816,1.108C14.37,39.036,35.734,49.166,36.178,83.836z"
				/>
		</g>
	</g>
</g>
</svg>
